{
  "id": "47ofxwrg7p_are_there_student_discounts",
  "data": {
    "action": "text",
    "contexts": [
      "global"
    ],
    "enabled": true,
    "answers": {
      "en": [
        "Various stores give out discounts for students, although many require an account for UniDays or StudentBeanz. 👏 Many stores also give out discounts depending on which societies you are a member of also, although this often requires you to pay up front for a membership card. 👍"
      ]
    },
    "questions": {
      "en": [
        "Are there student discounts?",
        "Do you get students discounts?",
        "Can I get student discounts?",
        "Can students get discounts?",
        "Do students get discounts?",
        "Are there discounts for students?",
        "Tell me about student discounts?",
        "What can you tell me about student discounts?",
        "What about student discounts?"
      ]
    },
    "redirectFlow": "",
    "redirectNode": ""
  }
}