{
  "id": "6sj58icvpw_tell_me_about_leeds_city_art_gallery",
  "data": {
    "action": "text",
    "contexts": [
      "global"
    ],
    "enabled": true,
    "answers": {
      "en": [
        "The Leeds City Art Gallery has a collection of 20th century British art. 👌 It has works by Francis Bacon, Stanley Spencer and Barbara Hepworth. 😍"
      ]
    },
    "questions": {
      "en": [
        "Tell me about Leeds City Art Gallery",
        "can you tell me about leeds city art gallery",
        "can you tell me more about the gallery?",
        "what is in the gallery?"
      ]
    },
    "redirectFlow": "",
    "redirectNode": ""
  }
}