{
  "id": "8n4nd6f1j9_how_do_you_work",
  "data": {
    "action": "text",
    "contexts": [
      "global"
    ],
    "enabled": true,
    "answers": {
      "en": [
        "Try asking my creator. 💁"
      ]
    },
    "questions": {
      "en": [
        "How do you work?",
        "How do you function?",
        "How do you answer my questions?",
        "How can you understand?",
        "How can you understand me?",
        "How were you made?",
        "how do u work",
        "how do u function",
        "how do u understand me"
      ]
    },
    "redirectFlow": "",
    "redirectNode": ""
  }
}