{
  "id": "xk6lrbex4i_what_is_the_history_of_the_university_of_leeds",
  "data": {
    "action": "text",
    "contexts": [
      "global"
    ],
    "enabled": true,
    "answers": {
      "en": [
        "The University of Leeds was officially founded back in 1904, but its origins go as far back as the nineteenth century when the Leeds School of Medicine was founded in 1831, before the Yorkshire College of Science in 1874. 👏"
      ]
    },
    "questions": {
      "en": [
        "What is the history of the University of Leeds?",
        "What is the history of the uni?",
        "Tell me about the history of the university?",
        "Tell me the history of the uni?",
        "What is the heritage of the university?",
        "Tell me about the university's history",
        "Tell me about the uni's history",
        "tell me about the uni's heritage",
        "what is the uni's heritage?",
        "what is the uni's history?",
        "tell me the uni's history",
        "tell me the university's history",
        "What is the history of the university?"
      ]
    },
    "redirectFlow": "",
    "redirectNode": ""
  }
}