{
  "version": "0.0.1",
  "catchAll": {
    "onReceive": [
      "say #!builtin_text-_AqJqM"
    ],
    "next": []
  },
  "startNode": "entry",
  "nodes": [
    {
      "id": "3rr0r",
      "name": "entry",
      "onEnter": [],
      "onReceive": null,
      "next": [
        {
          "condition": "true",
          "node": "node-8346"
        }
      ]
    },
    {
      "id": "2f33416781",
      "name": "node-8346",
      "next": [],
      "onEnter": [
        "say #!builtin_text-FzEjSR"
      ],
      "onReceive": null,
      "type": "standard"
    }
  ]
}