{
  "name": "__qna__iq275mv2wa_when_does_the_university_of_leeds_open",
  "entities": [],
  "contexts": [
    "global"
  ],
  "utterances": {
    "en": [
      "When does the University of Leeds open?",
      "When does the university open?",
      "When does the university of leeds close?",
      "when does the uni of leeds open?",
      "when does the uni of leeds close?",
      "when does the uni close?",
      "when does uni open?"
    ]
  },
  "slots": []
}