{
  "name": "__qna__hndfi2orjz_tell_me_some_facts_about_the_university_of_leeds",
  "entities": [],
  "contexts": [
    "global"
  ],
  "utterances": {
    "en": [
      "Tell me some facts about the University of Leeds",
      "What is the ranking of the university?",
      "what rank is the uni",
      "what is the ranking of the uni?",
      "what are some facts about the university?",
      "tell me some statistic on the uni",
      "tell me some statistics on the university",
      "tell me statistics on the University of Leeds",
      "what are some statistics on the University of Leeds?",
      "where is the uni in the world rankings?",
      "What rank is the uni?",
      "what rank is the university of Leeds?",
      "what are the uni's statistics?"
    ]
  },
  "slots": []
}