{
  "name": "goodbye",
  "utterances": {
    "en": [
      "bye",
      "bai",
      "goodbye",
      "thank you, bye",
      "bye, thank you",
      "bye bye",
      "farewell",
      "adieu",
      "ciao",
      "adios",
      "so long",
      "sayonara",
      "laters",
      "toodles",
      "pip pip",
      "toodle-pip"
    ]
  },
  "slots": [],
  "contexts": [
    "global"
  ]
}