{
  "name": "hello",
  "utterances": {
    "en": [
      "Hi",
      "Hello",
      "Hey",
      "Heyyy",
      "What's up",
      "Hii",
      "Hi!",
      "Hello!",
      "Hey!",
      "Greetings",
      "yo",
      "wassup",
      "wagwan"
    ]
  },
  "slots": [],
  "contexts": [
    "global"
  ]
}