{
  "id": "4x08nb3k36_what_is_the_weather_usually_like_in_leeds",
  "data": {
    "action": "text",
    "contexts": [
      "global"
    ],
    "enabled": true,
    "answers": {
      "en": [
        "In Leeds, the summer is usually comfortable and partly cloudy, while the winter is long, cold and windy. The temperature usually varies from 2°C to 20°C and is rarely below -3°C or above 25°C."
      ]
    },
    "questions": {
      "en": [
        "What is the weather usually like in Leeds?",
        "What's the weather usually like in Leeds?",
        "What is the weather like in Leeds?",
        "How does the weather change in Leeds?",
        "Is it cold in Leeds?",
        "Does it get cold in Leeds?",
        "How cold does it get in Leeds?",
        "Is Leeds windy?",
        "What is the weather usually like?",
        "Tell me about the weather in Leeds."
      ]
    },
    "redirectFlow": "",
    "redirectNode": ""
  }
}