{
  "id": "hpl4y4vgr0_what_is_the_edge",
  "data": {
    "action": "text",
    "contexts": [
      "global"
    ],
    "enabled": true,
    "answers": {
      "en": [
        "The Edge is a £12.2 million sports centre located on campus. It has a 250-station gym floor, a 25-metre pool, sports courts and a climbing wall."
      ]
    },
    "questions": {
      "en": [
        "What is the Edge?",
        "Tell me about the Edge",
        "Tell me about the gym",
        "Can you tell me more about the Edge?",
        "What can you tell me about the Edge?",
        "What's the Edge?",
        "what's the edge?"
      ]
    },
    "redirectFlow": "",
    "redirectNode": ""
  }
}