{
  "id": "kz6per72z3_when_are_holidays",
  "data": {
    "action": "text",
    "contexts": [
      "global"
    ],
    "enabled": true,
    "answers": {
      "en": [
        "Christmas breaks is from Saturday 11th December 2021 to Sunday 9th January 2022. Easter break is from Saturday 26th March to Sunday 24th April 2022. Summer break begins early June."
      ]
    },
    "questions": {
      "en": [
        "When are holidays?",
        "When is vacation?",
        "What time are holdays?",
        "When is easter holiday?",
        "when is easter break?",
        "when is summer holiday?",
        "when do students break off for the summer?",
        "when is reading week?",
        "when is christmas break?",
        "when is christmas holiday?",
        "when is christmas vacation?",
        "when is vacation?",
        "when is holiday?",
        "When are the holidays at the university of leeds?",
        "when is christmas break at the university of leeds?",
        "when is easter break at the university of leeds?"
      ]
    },
    "redirectFlow": "",
    "redirectNode": ""
  }
}