{
  "id": "yyhoq2bf1v_that_s_cool",
  "data": {
    "action": "text",
    "contexts": [
      "global"
    ],
    "enabled": true,
    "answers": {
      "en": [
        "Very.",
        "Indeed.",
        "Thanks."
      ]
    },
    "questions": {
      "en": [
        "That's cool.",
        "Thats amazing.",
        "Thats incredible",
        "Thats great",
        "Thats impressive",
        "Impressive",
        "Cool",
        "Nice",
        "Very nice",
        "Wow",
        "Super",
        "Awesome",
        "kl",
        "pog"
      ]
    },
    "redirectFlow": "",
    "redirectNode": ""
  }
}