{
  "name": "__qna__yyhoq2bf1v_that_s_cool",
  "entities": [],
  "contexts": [
    "global"
  ],
  "utterances": {
    "en": [
      "That's cool.",
      "Thats amazing.",
      "Thats incredible",
      "Thats great",
      "Thats impressive",
      "Impressive",
      "Cool",
      "Nice",
      "Very nice",
      "Wow",
      "Super",
      "Awesome",
      "kl",
      "pog"
    ]
  },
  "slots": []
}