{
  "name": "ready-for-questions",
  "utterances": {
    "en": [
      "I am ready now.",
      "You can ask your questions.",
      "I can answer those questions",
      "I can answer some questions.",
      "Ask the questions now.",
      "Ask the questions",
      "Ask the questions please",
      "I'm ready for the questions.",
      "I'm ready now.",
      "Ask me the questions.",
      "What were those questions you wanted to ask me?",
      "Can you ask your questions now?",
      "Go ahead with your questions.",
      "Ask those questions."
    ]
  },
  "slots": [],
  "contexts": [
    "global"
  ]
}