{
  "name": "yes",
  "utterances": {
    "en": [
      "Yes",
      "Yep",
      "Sure",
      "Go ahead",
      "Yes please",
      "No problem",
      "That's no problem",
      "Ask away",
      "Ask your questions",
      "I can answer some questions",
      "Yeah",
      "Ye",
      "Yea",
      "Y",
      "Please ask"
    ]
  },
  "slots": [],
  "contexts": [
    "global"
  ]
}