[
  {
    "id": "builtin_text-MZ_XcN",
    "formData": {
      "text$en": "Hello, I am a Chatbot.",
      "markdown$en": true,
      "typing$en": true,
      "variations$en": [
        "Hi, I am a Chatbot."
      ]
    },
    "createdBy": "admin",
    "createdOn": "2022-02-04T00:25:26.367Z",
    "modifiedOn": "2022-02-04T00:25:26.367Z"
  },
  {
    "id": "builtin_text-xQLjWQ",
    "formData": {
      "text$en": "hi",
      "markdown$en": true,
      "typing$en": true
    },
    "createdBy": "admin",
    "createdOn": "2022-02-04T00:28:01.229Z",
    "modifiedOn": "2022-02-04T00:28:01.229Z"
  },
  {
    "id": "builtin_text--xGA14",
    "formData": {
      "text$en": "Hello! I am a chatbot with information on the University of Leeds. 😄\nPlease ask me who I am, or what I can do. 🙏",
      "markdown$en": true,
      "typing$en": true
    },
    "createdBy": "admin",
    "createdOn": "2022-02-04T23:56:14.222Z",
    "modifiedOn": "2022-02-26T05:56:19.229Z"
  },
  {
    "id": "builtin_text-V7OLfC",
    "formData": {
      "text$en": "I am going to ask now.",
      "markdown$en": true,
      "typing$en": true
    },
    "createdBy": "admin",
    "createdOn": "2022-02-05T00:00:13.731Z",
    "modifiedOn": "2022-02-05T00:00:13.731Z"
  },
  {
    "id": "builtin_text-dZ9lW2",
    "formData": {
      "text$en": "No problem, let me know when you are ready.",
      "markdown$en": true,
      "typing$en": true
    },
    "createdBy": "admin",
    "createdOn": "2022-02-05T00:00:48.913Z",
    "modifiedOn": "2022-02-05T00:01:14.077Z"
  },
  {
    "id": "builtin_text-2xfBK1",
    "formData": {
      "text$en": "Goodbye. ✌",
      "markdown$en": true,
      "typing$en": true,
      "variations$en": [
        "Bye bye. ✌"
      ]
    },
    "createdBy": "admin",
    "createdOn": "2022-02-14T02:57:52.859Z",
    "modifiedOn": "2022-02-24T21:08:15.657Z"
  },
  {
    "id": "builtin_text-_AqJqM",
    "formData": {
      "text$en": "Something has gone wrong, please refresh.",
      "markdown$en": true,
      "typing$en": true
    },
    "createdBy": "admin",
    "createdOn": "2022-02-14T03:05:11.631Z",
    "modifiedOn": "2022-02-14T03:05:11.631Z"
  },
  {
    "id": "builtin_text-FzEjSR",
    "formData": {
      "text$en": "Sorry, an error has occured. 🙁",
      "markdown$en": true,
      "typing$en": false
    },
    "createdBy": "admin",
    "createdOn": "2022-02-21T02:54:55.963Z",
    "modifiedOn": "2022-02-24T21:11:04.784Z"
  },
  {
    "id": "builtin_text-2aeZaD",
    "formData": {
      "text$en": "I don't know that one. 😕 Try asking \"what can I ask you?\". 😊",
      "markdown$en": true,
      "typing$en": true,
      "variations$en": [
        "I don't have the answer to that. 😕 Try asking \"what can I ask you?\". 😊",
        "I don't know that. 😕Try asking \"what can I ask you?\" 😊",
        "I don't know how to answer that. 😕 Try asking \"what can I ask you?\". 😊"
      ]
    },
    "createdBy": "admin",
    "createdOn": "2022-02-21T03:00:09.612Z",
    "modifiedOn": "2022-03-15T22:42:52.549Z"
  }
]